Tasa de desempleo por promedio de escolaridad y salario mínimo
…
Busca los datos que sean más adecuados. No olvides citar la
fuente.

Recolectamos los datos de escolaridad, salario mínimo y desempleo del
INEGI, entre los años 2000 y 2020.

Organiza los datos en una tabla para RStudio.

tabla<-readxl::read_xlsx("BASE.xlsx")
tabla

## # A tibble: 21 × 4
##      AÑO escolaridad salario desempleo
##    <dbl>       <dbl>   <dbl>     <dbl>
##  1  2000        7.56    32.2    0.0258
##  2  2001        7.68    38.0    0.027 
##  3  2002        7.8     40.8    0.0295
##  4  2003        7.93    42.6    0.034 
##  5  2004        8.04    43.7    0.0391
##  6  2005        8.14    45.1    0.0349
##  7  2006        8.26    47.9    0.0353
##  8  2007        8.36    49.4    0.0362
##  9  2008        8.46    51.4    0.0388
## 10  2009        8.56    53.7    0.0533
## # … with 11 more rows
…
